Data Quality Analysis – Data Visualisation
…
denguedatahub

DSjobtracker

Data sets

denguedatahub::srilanka_weekly_data

library(tibble)
library(denguedatahub)
data(srilanka_weekly_data)
srilanka_weekly_data

# A tibble: 24,700 × 6
    year  week start.date end.date   district    cases
   <dbl> <dbl> <chr>      <chr>      <chr>       <dbl>
 1  2006    52 12/23/2006 12/29/2006 Colombo        71
 2  2006    52 12/23/2006 12/29/2006 Gampaha        12
 3  2006    52 12/23/2006 12/29/2006 Kalutara       12
 4  2006    52 12/23/2006 12/29/2006 Kandy          20
 5  2006    52 12/23/2006 12/29/2006 Matale          4
 6  2006    52 12/23/2006 12/29/2006 NuwaraEliya     1
 7  2006    52 12/23/2006 12/29/2006 Galle           1
 8  2006    52 12/23/2006 12/29/2006 Hambanthota     1
 9  2006    52 12/23/2006 12/29/2006 Matara         11
10  2006    52 12/23/2006 12/29/2006 Jaffna          0
# ℹ 24,690 more rows

denguedatahub::world_annual

library(tibble)
data(world_annual)
as_tibble(world_annual)

# A tibble: 2,773,284 × 10
    long   lat group order region subregion code   year incidence dengue.present
   <dbl> <dbl> <dbl> <int> <chr>  <chr>     <chr> <dbl>     <dbl> <chr>         
 1 -69.9  12.5     1     1 Aruba  <NA>      <NA>     NA        NA <NA>          
 2 -69.9  12.4     1     2 Aruba  <NA>      <NA>     NA        NA <NA>          
 3 -69.9  12.4     1     3 Aruba  <NA>      <NA>     NA        NA <NA>          
 4 -70.0  12.5     1     4 Aruba  <NA>      <NA>     NA        NA <NA>          
 5 -70.1  12.5     1     5 Aruba  <NA>      <NA>     NA        NA <NA>          
 6 -70.1  12.6     1     6 Aruba  <NA>      <NA>     NA        NA <NA>          
 7 -70.0  12.6     1     7 Aruba  <NA>      <NA>     NA        NA <NA>          
 8 -70.0  12.6     1     8 Aruba  <NA>      <NA>     NA        NA <NA>          
 9 -69.9  12.5     1     9 Aruba  <NA>      <NA>     NA        NA <NA>          
10 -69.9  12.5     1    10 Aruba  <NA>      <NA>     NA        NA <NA>          
# ℹ 2,773,274 more rows
…
drone::worldbankdata

# install.packages("devtools")
devtools::install_github("thiyangt/drone")

library(tibble)
library(drone)
data("worldbankdata")
worldbankdata

# A tibble: 7,937 × 7
   Country Code  Region                     Year Cooking Electricity Income
   <fct>   <fct> <fct>                     <dbl>   <dbl>       <dbl> <fct> 
 1 Aruba   ABW   Latin America & Caribbean  1990      NA       100   H     
 2 Aruba   ABW   Latin America & Caribbean  2000      NA        91.7 H     
 3 Aruba   ABW   Latin America & Caribbean  2013      NA       100   H     
 4 Aruba   ABW   Latin America & Caribbean  2014      NA       100   H     
 5 Aruba   ABW   Latin America & Caribbean  2015      NA       100   H     
 6 Aruba   ABW   Latin America & Caribbean  2016      NA       100   H     
 7 Aruba   ABW   Latin America & Caribbean  2017      NA       100   H     
 8 Aruba   ABW   Latin America & Caribbean  2018      NA       100   H     
 9 Aruba   ABW   Latin America & Caribbean  2019      NA       100   H     
10 Aruba   ABW   Latin America & Caribbean  2020      NA       100   H     
# ℹ 7,927 more rows
…
