Untitled – Data Visualisation
…
Let’s fix the issue using tsibble and fabletools

What is wrong with the following code?

colombo_tsibble <- srilanka_weekly_data |>
  filter(district == "Colombo") |>
  mutate(
    start.date = mdy(start.date)
  ) |>
  arrange(start.date) |>
  as_tsibble(index = start.date)
colombo_tsibble

# A tsibble: 991 x 6 [1D]
    year  week start.date end.date   district cases
   <dbl> <dbl> <date>     <chr>      <chr>    <dbl>
 1  2006    52 2006-12-23 12/29/2006 Colombo     71
 2  2007     1 2006-12-30 1/5/2007   Colombo     40
 3  2007     2 2007-01-06 1/12/2007  Colombo     43
 4  2007     3 2007-01-13 1/19/2007  Colombo     38
 5  2007     4 2007-01-20 1/26/2007  Colombo     52
 6  2007     5 2007-01-27 2/2/2007   Colombo     69
 7  2007     6 2007-02-03 2/9/2007   Colombo     36
 8  2007     7 2007-02-10 2/16/2007  Colombo     42
 9  2007     8 2007-02-17 2/23/2007  Colombo     28
10  2007     9 2007-02-24 3/2/2007   Colombo     20
# ℹ 981 more rows

Let’s fix the issue

colombo_tsibble <- srilanka_weekly_data |>
  filter(district == "Colombo") |>
  mutate(
    start.date = mdy(start.date),
    year_week = yearweek(start.date)
  ) |>
  arrange(year_week) |>
  as_tsibble(index = year_week)
colombo_tsibble

# A tsibble: 991 x 7 [1W]
    year  week start.date end.date   district cases year_week
   <dbl> <dbl> <date>     <chr>      <chr>    <dbl>    <week>
 1  2006    52 2006-12-23 12/29/2006 Colombo     71  2006 W51
 2  2007     1 2006-12-30 1/5/2007   Colombo     40  2006 W52
 3  2007     2 2007-01-06 1/12/2007  Colombo     43  2007 W01
 4  2007     3 2007-01-13 1/19/2007  Colombo     38  2007 W02
 5  2007     4 2007-01-20 1/26/2007  Colombo     52  2007 W03
 6  2007     5 2007-01-27 2/2/2007   Colombo     69  2007 W04
 7  2007     6 2007-02-03 2/9/2007   Colombo     36  2007 W05
 8  2007     7 2007-02-10 2/16/2007  Colombo     42  2007 W06
 9  2007     8 2007-02-17 2/23/2007  Colombo     28  2007 W07
10  2007     9 2007-02-24 3/2/2007   Colombo     20  2007 W08
# ℹ 981 more rows
…
# A mable: 1 x 1
  `STL(cases ~ season(period = 52))`
                             <model>
1                              <STL>

colombo_components <- colombo_stl |>
  components()
colombo_components

# A dable: 991 x 7 [1W]
# Key:     .model [1]
# :        cases = trend + season_52 + remainder
   .model                year_week cases trend season_52 remainder season_adjust
   <chr>                    <week> <dbl> <dbl>     <dbl>     <dbl>         <dbl>
 1 STL(cases ~ season(p…  2006 W51    71  22.6     24.7      23.7           46.3
 2 STL(cases ~ season(p…  2006 W52    40  22.9     14.0       3.10          26.0
 3 STL(cases ~ season(p…  2007 W01    43  23.1     24.4      -4.53          18.6
 4 STL(cases ~ season(p…  2007 W02    38  23.4     19.7      -5.12          18.3
 5 STL(cases ~ season(p…  2007 W03    52  23.7     20.4       7.92          31.6
 6 STL(cases ~ season(p…  2007 W04    69  24.0     18.6      26.4           50.4
 7 STL(cases ~ season(p…  2007 W05    36  24.2      4.55      7.21          31.5
 8 STL(cases ~ season(p…  2007 W06    42  24.5      4.54     12.9           37.5
 9 STL(cases ~ season(p…  2007 W07    28  24.8      1.73      1.47          26.3
10 STL(cases ~ season(p…  2007 W08    20  25.1    -18.4      13.3           38.4
# ℹ 981 more rows
…
